{
  "formatVersion": 1,
  "database": {
    "version": 2,
    "identityHash": "a1d9f5c67c9663459dd2ef1bdde33b26",
    "entities": [
      {
        "tableName": "Characters",
        "createSql": "CREATE TABLE IF NOT EXISTS `${TABLE_NAME}` (`id` INTEGER NOT NULL, `name` TEXT NOT NULL, `image` TEXT NOT NULL, `gender` TEXT NOT NULL, `hairColor` TEXT NOT NULL, `occupation` TEXT NOT NULL, `firstEpisode` TEXT NOT NULL, `voicedBy` TEXT NOT NULL, `url` TEXT NOT NULL, `wikiUrl` TEXT NOT NULL, `favorited` INTEGER NOT NULL, PRIMARY KEY(`id`))",
        "fields": [
          {
            "fieldPath": "id",
            "columnName": "id",
            "affinity": "INTEGER",
            "notNull": true
          },
          {
            "fieldPath": "name",
            "columnName": "name",
            "affinity": "TEXT",
            "notNull": true
          },
          {
            "fieldPath": "image",
            "columnName": "image",
            "affinity": "TEXT",
            "notNull": true
          },
          {
            "fieldPath": "gender",
            "columnName": "gender",
            "affinity": "TEXT",
            "notNull": true
          },
          {
            "fieldPath": "hairColor",
            "columnName": "hairColor",
            "affinity": "TEXT",
            "notNull": true
          },
          {
            "fieldPath": "occupation",
            "columnName": "occupation",
            "affinity": "TEXT",
            "notNull": true
          },
          {
            "fieldPath": "firstEpisode",
            "columnName": "firstEpisode",
            "affinity": "TEXT",
            "notNull": true
          },
          {
            "fieldPath": "voicedBy",
            "columnName": "voicedBy",
            "affinity": "TEXT",
            "notNull": true
          },
          {
            "fieldPath": "url",
            "columnName": "url",
            "affinity": "TEXT",
            "notNull": true
          },
          {
            "fieldPath": "wikiUrl",
            "columnName": "wikiUrl",
            "affinity": "TEXT",
            "notNull": true
          },
          {
            "fieldPath": "favorited",
            "columnName": "favorited",
            "affinity": "INTEGER",
            "notNull": true
          }
        ],
        "primaryKey": {
          "columnNames": [
            "id"
          ],
          "autoGenerate": false
        },
        "indices": [],
        "foreignKeys": []
      }
    ],
    "views": [],
    "setupQueries": [
      "CREATE TABLE IF NOT EXISTS room_master_table (id INTEGER PRIMARY KEY,identity_hash TEXT)",
      "INSERT OR REPLACE INTO room_master_table (id,identity_hash) VALUES(42, 'a1d9f5c67c9663459dd2ef1bdde33b26')"
    ]
  }
}